…
flights_rec <- 
  recipe(arr_delay ~ ., data = train_data) %>% 
  update_role(flight, time_hour, new_role = "ID") 

summary(flights_rec)

```

```{r}
flight_data %>% 
  distinct(date) %>% 
  mutate(numeric_date = as.numeric(date)) 
#> # A tibble: 364 x 2
#>   date       numeric_date
#>   <date>            <dbl>
#> 1 2013-01-01        15706
#> 2 2013-01-02        15707
#> 3 2013-01-03        15708
#> 4 2013-01-04        15709
#> 5 2013-01-05        15710
#> # … with 359 more rows
…
```

```{r}
predict(flights_fit, test_data)

```

```{r}
flights_pred <- 
  predict(flights_fit, test_data, type = "prob") %>% 
  bind_cols(test_data %>% select(arr_delay, time_hour, flight)) 

# The data look like: 
flights_pred
#> # A tibble: 81,454 x 5
#>   .pred_late .pred_on_time arr_delay time_hour           flight
#>        <dbl>         <dbl> <fct>     <dttm>               <int>
#> 1     0.0565         0.944 on_time   2013-01-01 05:00:00   1714
#> 2     0.0264         0.974 on_time   2013-01-01 06:00:00     79
#> 3     0.0481         0.952 on_time   2013-01-01 06:00:00    301
#> 4     0.0325         0.967 on_time   2013-01-01 06:00:00     49
#> 5     0.0711         0.929 on_time   2013-01-01 06:00:00   1187
#> # … with 81,449 more rows
…
