…
```

```{r}
rf_res %>% 
  collect_predictions()
#> # A tibble: 187,475 x 8
#>   id        .pred_children .pred_none  .row  mtry min_n children .config        
#>   <chr>              <dbl>      <dbl> <int> <int> <int> <fct>    <chr>          
#> 1 validati…       0.00247       0.998    11    12     7 none     Preprocessor1_…
#> 2 validati…       0             1        13    12     7 none     Preprocessor1_…
#> 3 validati…       0             1        31    12     7 none     Preprocessor1_…
#> 4 validati…       0.000249      1.00     32    12     7 none     Preprocessor1_…
#> 5 validati…       0.000167      1.00     36    12     7 none     Preprocessor1_…
#> # … with 187,470 more rows
…
