…
# defnir cero días-------------------------------------------------------------
zero_days = difftime(ymd("2000-01-01"), ymd("2000-01-01"), units = "days")

```

```{r}
# cargar base -----------------------------------------------------------------
library(modeldata)

```

```{r}
data(cells, package = "modeldata")
cells
#> # A tibble: 2,019 x 58
#>   case  class angle_ch_1 area_ch_1 avg_inten_ch_1 avg_inten_ch_2 avg_inten_ch_3
#>   <fct> <fct>      <dbl>     <int>          <dbl>          <dbl>          <dbl>
#> 1 Test  PS        143.         185           15.7           4.95           9.55
#> 2 Train PS        134.         819           31.9         207.            69.9 
#> 3 Train WS        107.         431           28.0         116.            63.9 
#> 4 Train PS         69.2        298           19.5         102.            28.2 
#> 5 Test  PS          2.89       285           24.3         112.            20.5 
#> # … with 2,014 more rows, and 51 more variables: avg_inten_ch_4 <dbl>,
#> #   convex_hull_area_ratio_ch_1 <dbl>, convex_hull_perim_ratio_ch_1 <dbl>,
#> #   diff_inten_density_ch_1 <dbl>, diff_inten_density_ch_3 <dbl>, …
…
